96
Lattice="12.187571587502845 0.0 0.0 6.093785793751422 10.554746605218904 0.0 0.0 0.0 31.982928925501632" Properties=species:S:1:pos:R:3 pbc="T T T"
O        6.09378579       0.00000000      12.16945972
O        0.00000000       0.00000000      12.16945972
O        3.04689290       5.27737330      12.16945972
O        9.14067869       5.27737330      12.16945972
O       12.18757159       7.03649773      13.55927963
O        9.14067869       1.75912443      13.55927963
O        6.09378579       7.03649773      13.55927963
O        3.04689290       1.75912443      13.55927963
O        9.14067869       8.79562217      14.94909953
O       15.23446449       8.79562217      14.94909953
O       12.18757159       3.51824887      14.94909953
O        6.09378579       3.51824887      14.94909953
O        9.14067869       5.27737330      16.33891944
O        6.09378579       0.00000000      16.33891944
O        3.04689290       5.27737330      16.33891944
O        0.00000000       0.00000000      16.33891944
O        9.14067869       1.75912443      17.71792109
O       12.18757159       7.03649773      17.71792109
O        6.09378579       7.03649773      17.71792109
O        3.04689290       1.75912443      17.71792109
O        6.09378579       3.51824887      19.10793407
O        9.14067869       8.79562217      19.10793407
O       12.18757159       3.51824887      19.10793407
O       15.23446449       8.79562217      19.10793407
O        9.14067869       5.27737330      20.53730860
O        6.09378579       0.00000000      20.53730860
O        3.04689290       5.27737330      20.53730860
O        0.00000000       0.00000000      20.53730860
O        3.04689290       1.75912443      21.83741900
O        6.09378579       7.03649773      21.83741900
O        9.14067869       1.75912443      21.83741900
O       12.18757159       7.03649773      21.83741900
Cu      10.66412514       0.87956222      12.86436967
Cu       1.52344645       0.87956222      12.86436967
Cu       6.09378579       8.79562217      12.86436967
Cu      15.23446449       8.79562217      12.86436967
Cu      12.18757159       3.51824887      12.86436967
Cu       4.57033935       6.15693552      12.86436967
Cu       3.04689290       3.51824887      12.86436967
Cu      13.71101803       6.15693552      12.86436967
Cu       7.61723224       0.87956222      12.86436967
Cu      12.18757159       8.79562217      12.86436967
Cu      10.66412514       6.15693552      12.86436967
Cu       9.14067869       3.51824887      12.86436967
Cu       9.14067869       8.79562217      12.86436967
Cu       4.57033935       0.87956222      12.86436967
Cu       7.61723224       6.15693552      12.86436967
Cu       6.09378579       3.51824887      12.86436967
Cu      16.75791093       9.67518439      15.64400949
Cu      13.71101803       9.67518439      15.64400949
Cu      10.66412514       4.39781108      15.64400949
Cu      12.18757159       7.03649773      15.64400949
Cu      15.23446449       7.03649773      15.64400949
Cu      13.71101803       4.39781108      15.64400949
Cu      12.18757159       1.75912443      15.64400949
Cu       9.14067869       1.75912443      15.64400949
Cu       7.61723224       9.67518439      15.64400949
Cu       6.09378579       7.03649773      15.64400949
Cu       3.04689290       1.75912443      15.64400949
Cu       4.57033935       4.39781108      15.64400949
Cu      10.66412514       9.67518439      15.64400949
Cu       9.14067869       7.03649773      15.64400949
Cu       7.61723224       4.39781108      15.64400949
Cu       6.09378579       1.75912443      15.64400949
Cu      10.65434057       7.92170908      18.38559408
Cu       9.14067869       5.27737330      18.43455393
Cu       6.09378579       0.00000000      18.43455393
Cu      15.23446449      10.54344836      18.38559408
Cu       7.60744767       2.64433577      18.38559408
Cu      16.74812636       7.92170908      18.38559408
Cu      13.70123346       2.64433577      18.38559408
Cu      13.72080261       7.92170908      18.38559408
Cu      12.18757159       5.26607505      18.38559408
Cu      10.67390971       2.64433577      18.38559408
Cu       3.04689290       5.27737330      18.43455393
Cu       0.00000000       0.00000000      18.43455393
Cu       7.62701682       7.92170908      18.38559408
Cu       6.09378579       5.26607505      18.38559408
Cu       4.58012392       2.64433577      18.38559408
Cu       9.14067869      10.54344836      18.38559408
Cu       6.09378579       3.51824887      21.28778388
Cu      10.71201935       6.18458726      21.07548670
Cu       9.14067869       3.46294540      21.07548670
Cu       7.56933803       6.18458726      21.07548670
Cu       7.66512645       0.90721395      21.07548670
Cu      12.18757159       8.74031870      21.07548670
Cu       4.52244514       0.90721395      21.07548670
Cu       9.14067869       8.79562217      21.28778388
Cu       4.61823355       6.18458726      21.07548670
Cu       3.04689290       3.46294540      21.07548670
Cu      13.66312383       6.18458726      21.07548670
Cu      12.18757159       3.51824887      21.28778388
Cu      15.23446449       8.79562217      21.28778388
Cu       1.57134065       0.90721395      21.07548670
Cu       6.09378579       8.74031870      21.07548670
Cu      10.61623093       0.90721395      21.07548670
